<?xml version="1.0" encoding="UTF-8" standalone="no"?>
<svg xmlns="http://www.w3.org/2000/svg" height="512" width="512" version="1.0" xmlns:xlink="http://www.w3.org/1999/xlink">
 <defs>
  <linearGradient id="b" y2="1e-7" gradientUnits="userSpaceOnUse" x2="0" y1="512" x1="512">
   <stop style="stop-color:#234450" offset="0"/>
   <stop style="stop-color:#333" offset="1"/>
  </linearGradient>
  <linearGradient id="a" y2="238.3" gradientUnits="userSpaceOnUse" x2="-262.6" gradientTransform="matrix(1,0,0,-1,260,512)" y1="245.5" x1="16.21">
   <stop style="stop-color:#19b6ee" offset="0"/>
   <stop style="stop-color:#2e4f5a" offset="1"/>
  </linearGradient>
 </defs>
 <path d="m0 1e-7v512h512v-512z" style="color:#000000;stroke-width:16;fill:url(#b)"/>
 <path style="color:#000000;opacity:.215;stroke-width:16;fill:url(#a)" d="m0 512v-512h512v512z"/>
 <path style="stroke:#fcfcfc;stroke-width:15.86px;fill:none" d="m0.4592 256.3h511.1"/>
<g style="stroke:#fcfcfc;stroke-width:8;fill:none">
 <path d="m254.3 198.5v115.4"/>
 <path d="m412.9 214.7v83.1"/>
 <path d="m95.63 214.7v83.1"/>
 <path d="m190.8 231.2v50.24"/>
 <path d="m159.1 231.2v50.24"/>
 <path d="m127.4 231.2v50.24"/>
 <path d="m222.5 231.2v50.24"/>
 <path d="m349.4 231.2v50.24"/>
 <path d="m317.7 231.2v50.24"/>
 <path d="m286 231.2v50.24"/>
 <path d="m381.2 231.2v50.24"/>
 <path d="m444.6 231.2v50.24"/>
 <path d="m476.3 231.2v50.24"/>
 <path d="m63.91 231.2v50.24"/>
 <path d="m32.18 231.2v50.24"/>
</g>
<g style="opacity:.812;stroke-width:4.722;fill:#fff">
 <path d="m251.2 364.9q0 9.728-4.864 14.73-4.817 4.958-14.36 5.005l-0.1412-3.683q2.975 0 5.336-0.5663 2.408-0.5663 4.203-1.794 1.794-1.275 2.975-3.258 1.228-1.983 1.794-4.864-1.228 0.5663-2.786 0.9454-1.558 0.3299-3.211 0.3299-2.786 0-4.722-0.8026-1.936-0.8502-3.164-2.219-1.228-1.416-1.794-3.211-0.5195-1.842-0.5195-3.825 0-1.747 0.6139-3.636t1.842-3.447q1.275-1.558 3.211-2.55 1.936-0.9914 4.581-0.9914 2.692 0 4.722 0.9438 2.078 0.9438 3.447 2.739 1.417 1.794 2.125 4.392 0.7084 2.55 0.7084 5.761zm-10.58 3.258q1.653 0 3.117-0.2839 1.464-0.3299 2.833-0.9438 0.0476-0.5203 0.0476-0.9914 0-0.5187 0-1.039 0-2.031-0.2833-3.872-0.2833-1.889-1.039-3.258-0.7082-1.416-1.936-2.219-1.228-0.8502-3.117-0.8502-1.558 0-2.644 0.6615-1.086 0.6614-1.794 1.7-0.7084 0.9914-1.039 2.219-0.2833 1.18-0.2833 2.314 0 3.211 1.511 4.911 1.558 1.653 4.628 1.653z"/>
 <path d="m256.6 368.2q0-8.217 2.881-12.66 2.928-4.439 8.075-4.439t8.028 4.439q2.928 4.439 2.928 12.66 0 8.217-2.928 12.66-2.881 4.439-8.028 4.439t-8.075-4.439q-2.881-4.439-2.881-12.66zm17.28 0q0-2.692-0.3306-5.1-0.2833-2.408-1.039-4.203-0.7082-1.794-1.936-2.833-1.228-1.087-3.022-1.087t-3.022 1.087q-1.228 1.039-1.983 2.833-0.7082 1.794-1.039 4.203-0.2833 2.408-0.2833 5.1t0.2833 5.1q0.3306 2.408 1.039 4.203 0.7555 1.794 1.983 2.881 1.228 1.039 3.022 1.039t3.022-1.039q1.228-1.087 1.936-2.881 0.7555-1.794 1.039-4.203 0.3306-2.408 0.3306-5.1z"/>
 <path d="m59.04 358.6q2.692-1.039 5.242-2.644 2.55-1.653 4.675-4.108h3.117v32.72h-4.392v-26.63q-0.5667 0.5187-1.417 1.087-0.8028 0.5663-1.794 1.087-0.9444 0.5187-2.031 0.9914-1.039 0.4727-2.031 0.8026z"/>
 <path d="m83.67 368.2q0-8.217 2.881-12.66 2.928-4.439 8.075-4.439t8.028 4.439q2.928 4.439 2.928 12.66 0 8.217-2.928 12.66-2.881 4.439-8.028 4.439t-8.075-4.439q-2.881-4.439-2.881-12.66zm17.28 0q0-2.692-0.3306-5.1-0.2833-2.408-1.039-4.203-0.7083-1.794-1.936-2.833-1.228-1.087-3.022-1.087t-3.022 1.087q-1.228 1.039-1.983 2.833-0.7083 1.794-1.039 4.203-0.2833 2.408-0.2833 5.1t0.2833 5.1q0.3306 2.408 1.039 4.203 0.7556 1.794 1.983 2.881 1.228 1.039 3.022 1.039t3.022-1.039q1.228-1.087 1.936-2.881 0.7556-1.794 1.039-4.203 0.3306-2.408 0.3306-5.1z"/>
 <path d="m110.3 368.2q0-8.217 2.881-12.66 2.928-4.439 8.075-4.439t8.028 4.439q2.928 4.439 2.928 12.66 0 8.217-2.928 12.66-2.881 4.439-8.028 4.439t-8.075-4.439q-2.881-4.439-2.881-12.66zm17.28 0q0-2.692-0.3306-5.1-0.2833-2.408-1.039-4.203-0.7083-1.794-1.936-2.833-1.228-1.087-3.022-1.087t-3.022 1.087q-1.228 1.039-1.983 2.833-0.7083 1.794-1.039 4.203-0.2833 2.408-0.2833 5.1t0.2833 5.1q0.3306 2.408 1.039 4.203 0.7556 1.794 1.983 2.881 1.228 1.039 3.022 1.039t3.022-1.039q1.228-1.087 1.936-2.881 0.7556-1.794 1.039-4.203 0.3306-2.408 0.3306-5.1z"/>
 <path d="m410.2 376.1q0 1.983-0.7084 3.683-0.6611 1.653-2.031 2.928-1.322 1.228-3.353 1.889-2.031 0.709-4.675 0.709-3.069 0-5.147-0.8502-2.031-0.8978-3.258-2.219-1.228-1.321-1.747-2.881-0.5195-1.605-0.5195-3.022 0-1.369 0.425-2.597 0.4722-1.275 1.181-2.361 0.7555-1.087 1.7-1.936 0.9917-0.8978 2.078-1.558-4.628-2.644-4.628-7.792 0-1.794 0.7082-3.4 0.7082-1.653 1.983-2.88 1.322-1.228 3.164-1.936 1.842-0.755 4.108-0.755 2.644 0 4.533 0.8026t3.069 2.078q1.228 1.228 1.747 2.739 0.5666 1.512 0.5666 2.928 0 1.369-0.425 2.597-0.3778 1.18-1.086 2.219-0.6611 1.039-1.558 1.842-0.8501 0.8026-1.794 1.416 5.572 2.644 5.667 8.358zm-17 0.2839q0 0.8502 0.2833 1.794 0.3306 0.8978 1.086 1.7 0.7555 0.755 1.936 1.275 1.18 0.5187 2.975 0.5187 1.606 0 2.786-0.4727 1.228-0.4727 1.983-1.18 0.7555-0.755 1.133-1.7 0.3778-0.9438 0.3778-1.936 0-1.512-0.5666-2.644-0.5666-1.133-1.653-1.983-1.039-0.8502-2.55-1.416-1.464-0.6139-3.353-1.039-2.125 1.18-3.306 2.928-1.133 1.747-1.133 4.155zm11.81-16.76q0-0.709-0.3306-1.558-0.2833-0.8502-0.9444-1.558-0.6611-0.755-1.7-1.228-1.039-0.5187-2.55-0.5187t-2.597 0.4727q-1.039 0.4727-1.7 1.228-0.6611 0.709-0.9917 1.606-0.2833 0.8502-0.2833 1.7 0 1.039 0.3778 2.078t1.18 1.936q0.8028 0.8978 2.078 1.606 1.322 0.709 3.117 1.134 1.983-1.18 3.164-2.739 1.181-1.605 1.181-4.155z"/>
 <path d="m415.2 368.2q0-8.217 2.881-12.66 2.928-4.439 8.075-4.439t8.028 4.439q2.928 4.439 2.928 12.66 0 8.217-2.928 12.66-2.881 4.439-8.028 4.439t-8.075-4.439q-2.881-4.439-2.881-12.66zm17.28 0q0-2.692-0.3306-5.1-0.2833-2.408-1.039-4.203-0.7084-1.794-1.936-2.833-1.228-1.087-3.022-1.087t-3.022 1.087q-1.228 1.039-1.983 2.833-0.7082 1.794-1.039 4.203-0.2833 2.408-0.2833 5.1t0.2833 5.1q0.3306 2.408 1.039 4.203 0.7555 1.794 1.983 2.881 1.228 1.039 3.022 1.039t3.022-1.039q1.228-1.087 1.936-2.881 0.7555-1.794 1.039-4.203 0.3306-2.408 0.3306-5.1z"/>
</g>
 <rect style="stroke-linejoin:round;stroke:#d5d5d5;stroke-width:8;fill:#fff" rx=".8" ry="7.5" height="21.5" width="7" y="63" x="324.5"/>
 <path style="stroke:#d5d5d5;stroke-width:4.5;fill:none" d="m328 71.3v414"/>
</svg>
